Csv/taller 5/parte 1/SDS00001.csv

Record Length,Analog:700
Sample Interval,CH1:0.0000000010000
Vertical Units,CH1:V,,,
Vertical Scale,CH1:2.00,,,
Vertical Offset,CH1:0.00,,,
Horizontal Units,us,,,
Horizontal Scale,0.0500000000,,,
Model Number,SDS1202X-E,,,
Serial Number,SDS1EEFX6R4804,,,
Software Version,1.3.26,,,
Source,CH1
Second,Volt
 0.00000000000,0.08000
 0.00000000100,0.08000
 0.00000000200,0.08000
 0.00000000300,0.16000
 0.00000000400,0.00
 0.00000000500,0.08000
 0.00000000600,-0.08000
 0.00000000700,0.00
 0.00000000800,0.08000
 0.00000000900,0.08000
 0.00000001000,0.08000
 0.00000001100,0.00
 0.00000001200,0.08000
 0.00000001300,0.00
 0.00000001400,0.08000
 0.00000001500,0.00
 0.00000001600,0.08000
 0.00000001700,0.08000
 0.00000001800,0.08000
 0.00000001900,-0.08000
 0.00000002000,0.00
 0.00000002100,0.08000
 0.00000002200,0.08000
 0.00000002300,0.00
 0.00000002400,0.08000
 0.00000002500,0.08000
 0.00000002600,0.16000
 0.00000002700,0.08000
 0.00000002800,0.00
 0.00000002900,0.08000
 0.00000003000,0.08000
 0.00000003100,0.08000
 0.00000003200,0.08000
 0.00000003300,0.00
 0.00000003400,0.16000
 0.00000003500,0.00
 0.00000003600,0.08000
 0.00000003700,0.00
 0.00000003800,0.00
 0.00000003900,0.00
 0.00000004000,0.08000
 0.00000004100,0.08000
 0.00000004200,0.08000
 0.00000004300,0.08000
 0.00000004400,0.00
 0.00000004500,0.08000
 0.00000004600,0.00
 0.00000004700,0.08000
 0.00000004800,0.00
 0.00000004900,0.08000
 0.00000005000,0.08000
 0.00000005100,0.00
 0.00000005200,0.08000
 0.00000005300,0.00
 0.00000005400,0.08000
 0.00000005500,0.08000
 0.00000005600,-0.08000
 0.00000005700,0.00
 0.00000005800,0.08000
 0.00000005900,-0.08000
 0.00000006000,0.00
 0.00000006100,0.08000
 0.00000006200,0.00
 0.00000006300,0.08000
 0.00000006400,0.08000
 0.00000006500,-0.08000
 0.00000006600,0.00
 0.00000006700,0.08000
 0.00000006800,0.00
 0.00000006900,0.00
 0.00000007000,0.08000
 0.00000007100,0.00
 0.00000007200,0.00
 0.00000007300,0.08000
 0.00000007400,0.00
 0.00000007500,0.00
 0.00000007600,0.00
 0.00000007700,-0.08000
 0.00000007800,0.00
 0.00000007900,0.08000
 0.00000008000,0.00
 0.00000008100,0.00
 0.00000008200,0.08000
 0.00000008300,-0.08000
 0.00000008400,0.00
 0.00000008500,0.08000
 0.00000008600,0.00
 0.00000008700,0.08000
 0.00000008800,0.08000
 0.00000008900,0.00
 0.00000009000,0.00
 0.00000009100,-0.08000
 0.00000009200,-0.08000
 0.00000009300,0.08000
 0.00000009400,0.16000
 0.00000009500,0.32000
 0.00000009600,0.40000
 0.00000009700,0.64000
 0.00000009800,0.72000
 0.00000009900,0.96000
 0.00000010000,1.20000
 0.00000010100,1.60000
 0.00000010200,1.92000
 0.00000010300,2.32000
 0.00000010400,2.72000
 0.00000010500,3.04000
 0.00000010600,3.36000
 0.00000010700,3.76000
 0.00000010800,4.08000
 0.00000010900,4.40000
 0.00000011000,4.96000
 0.00000011100,5.28000
 0.00000011200,5.60000
 0.00000011300,5.92000
 0.00000011400,6.24000
 0.00000011500,6.40000
 0.00000011600,6.56000
 0.00000011700,6.72000
 0.00000011800,6.88000
 0.00000011900,7.04000
 0.00000012000,7.20000
 0.00000012100,7.20000
 0.00000012200,7.20000
 0.00000012300,7.12000
 0.00000012400,7.20000
 0.00000012500,7.12000
 0.00000012600,7.12000
 0.00000012700,7.04000
 0.00000012800,7.12000
 0.00000012900,7.20000
 0.00000013000,7.20000
 0.00000013100,7.20000
 0.00000013200,7.12000
 0.00000013300,7.12000
 0.00000013400,7.20000
 0.00000013500,7.20000
 0.00000013600,7.20000
 0.00000013700,7.20000
 0.00000013800,7.36000
 0.00000013900,7.20000
 0.00000014000,7.28000
 0.00000014100,7.20000
 0.00000014200,7.28000
 0.00000014300,7.36000
 0.00000014400,7.28000
 0.00000014500,7.36000
 0.00000014600,7.36000
 0.00000014700,7.28000
 0.00000014800,7.36000
 0.00000014900,7.28000
 0.00000015000,7.36000
 0.00000015100,7.28000
 0.00000015200,7.36000
 0.00000015300,7.36000
 0.00000015400,7.36000
 0.00000015500,7.36000
 0.00000015600,7.36000
 0.00000015700,7.36000
 0.00000015800,7.44000
 0.00000015900,7.36000
 0.00000016000,7.36000
 0.00000016100,7.44000
 0.00000016200,7.44000
 0.00000016300,7.44000
 0.00000016400,7.52000
 0.00000016500,7.44000
 0.00000016600,7.44000
 0.00000016700,7.44000
 0.00000016800,7.44000
 0.00000016900,7.44000
 0.00000017000,7.44000
 0.00000017100,7.44000
 0.00000017200,7.52000
 0.00000017300,7.44000
 0.00000017400,7.52000
 0.00000017500,7.44000
 0.00000017600,7.52000
 0.00000017700,7.52000
 0.00000017800,7.52000
 0.00000017900,7.52000
 0.00000018000,7.52000
 0.00000018100,7.44000
 0.00000018200,7.44000
 0.00000018300,7.44000
 0.00000018400,7.44000
 0.00000018500,7.36000
 0.00000018600,7.44000
 0.00000018700,7.36000
 0.00000018800,7.36000
 0.00000018900,7.28000
 0.00000019000,7.28000
 0.00000019100,7.12000
 0.00000019200,7.12000
 0.00000019300,7.12000
 0.00000019400,7.20000
 0.00000019500,7.04000
 0.00000019600,7.04000
 0.00000019700,7.04000
 0.00000019800,6.96000
 0.00000019900,6.88000
 0.00000020000,6.88000
 0.00000020100,6.88000
 0.00000020200,6.88000
 0.00000020300,6.80000
 0.00000020400,6.80000
 0.00000020500,6.72000
 0.00000020600,6.80000
 0.00000020700,6.72000
 0.00000020800,6.72000
 0.00000020900,6.80000
 0.00000021000,6.72000
 0.00000021100,6.80000
 0.00000021200,6.72000
 0.00000021300,6.64000
 0.00000021400,6.72000
 0.00000021500,6.72000
 0.00000021600,6.72000
 0.00000021700,6.72000
 0.00000021800,6.64000
 0.00000021900,6.64000
 0.00000022000,6.72000
 0.00000022100,6.64000
 0.00000022200,6.64000
 0.00000022300,6.56000
 0.00000022400,6.64000
 0.00000022500,6.72000
 0.00000022600,6.64000
 0.00000022700,6.64000
 0.00000022800,6.64000
 0.00000022900,6.64000
 0.00000023000,6.64000
 0.00000023100,6.56000
 0.00000023200,6.72000
 0.00000023300,6.64000
 0.00000023400,6.64000
 0.00000023500,6.56000
 0.00000023600,6.64000
 0.00000023700,6.64000
 0.00000023800,6.64000
 0.00000023900,6.56000
 0.00000024000,6.64000
 0.00000024100,6.72000
 0.00000024200,6.64000
 0.00000024300,6.64000
 0.00000024400,6.64000
 0.00000024500,6.56000
 0.00000024600,6.56000
 0.00000024700,6.64000
 0.00000024800,6.64000
 0.00000024900,6.56000
 0.00000025000,6.64000
 0.00000025100,6.56000
 0.00000025200,6.64000
 0.00000025300,6.56000
 0.00000025400,6.56000
 0.00000025500,6.64000
 0.00000025600,6.64000
 0.00000025700,6.56000
 0.00000025800,6.56000
 0.00000025900,6.64000
 0.00000026000,6.56000
 0.00000026100,6.56000
 0.00000026200,6.56000
 0.00000026300,6.48000
 0.00000026400,6.56000
 0.00000026500,6.64000
 0.00000026600,6.56000
 0.00000026700,6.56000
 0.00000026800,6.56000
 0.00000026900,6.56000
 0.00000027000,6.56000
 0.00000027100,6.56000
 0.00000027200,6.72000
 0.00000027300,6.56000
 0.00000027400,6.64000
 0.00000027500,6.56000
 0.00000027600,6.56000
 0.00000027700,6.56000
 0.00000027800,6.56000
 0.00000027900,6.56000
 0.00000028000,6.48000
 0.00000028100,6.56000
 0.00000028200,6.40000
 0.00000028300,6.48000
 0.00000028400,6.56000
 0.00000028500,6.48000
 0.00000028600,6.48000
 0.00000028700,6.40000
 0.00000028800,6.40000
 0.00000028900,6.40000
 0.00000029000,6.56000
 0.00000029100,6.48000
 0.00000029200,6.48000
 0.00000029300,6.48000
 0.00000029400,6.40000
 0.00000029500,6.40000
 0.00000029600,6.48000
 0.00000029700,6.48000
 0.00000029800,6.48000
 0.00000029900,6.40000
 0.00000030000,6.40000
 0.00000030100,6.40000
 0.00000030200,6.40000
 0.00000030300,6.40000
 0.00000030400,6.40000
 0.00000030500,6.48000
 0.00000030600,6.48000
 0.00000030700,6.40000
 0.00000030800,6.40000
 0.00000030900,6.40000
 0.00000031000,6.40000
 0.00000031100,6.40000
 0.00000031200,6.40000
 0.00000031300,6.48000
 0.00000031400,6.48000
 0.00000031500,6.40000
 0.00000031600,6.40000
 0.00000031700,6.32000
 0.00000031800,6.40000
 0.00000031900,6.40000
 0.00000032000,6.48000
 0.00000032100,6.40000
 0.00000032200,6.40000
 0.00000032300,6.40000
 0.00000032400,6.32000
 0.00000032500,6.40000
 0.00000032600,6.40000
 0.00000032700,6.40000
 0.00000032800,6.40000
 0.00000032900,6.40000
 0.00000033000,6.40000
 0.00000033100,6.32000
 0.00000033200,6.32000
 0.00000033300,6.32000
 0.00000033400,6.40000
 0.00000033500,6.40000
 0.00000033600,6.40000
 0.00000033700,6.40000
 0.00000033800,6.40000
 0.00000033900,6.32000
 0.00000034000,6.40000
 0.00000034100,6.40000
 0.00000034200,6.40000
 0.00000034300,6.40000
 0.00000034400,6.40000
 0.00000034500,6.40000
 0.00000034600,6.32000
 0.00000034700,6.32000
 0.00000034800,6.32000
 0.00000034900,6.32000
 0.00000035000,6.32000
 0.00000035100,6.32000
 0.00000035200,6.32000
 0.00000035300,6.40000
 0.00000035400,6.32000
 0.00000035500,6.32000
 0.00000035600,6.32000
 0.00000035700,6.32000
 0.00000035800,6.40000
 0.00000035900,6.32000
 0.00000036000,6.32000
 0.00000036100,6.40000
 0.00000036200,6.40000
 0.00000036300,6.32000
 0.00000036400,6.32000
 0.00000036500,6.32000
 0.00000036600,6.32000
 0.00000036700,6.32000
 0.00000036800,6.32000
 0.00000036900,6.40000
 0.00000037000,6.32000
 0.00000037100,6.32000
 0.00000037200,6.32000
 0.00000037300,6.32000
 0.00000037400,6.32000
 0.00000037500,6.32000
 0.00000037600,6.40000
 0.00000037700,6.40000
 0.00000037800,6.32000
 0.00000037900,6.32000
 0.00000038000,6.40000
 0.00000038100,6.40000
 0.00000038200,6.40000
 0.00000038300,6.40000
 0.00000038400,6.40000
 0.00000038500,6.40000
 0.00000038600,6.32000
 0.00000038700,6.32000
 0.00000038800,6.32000
 0.00000038900,6.32000
 0.00000039000,6.40000
 0.00000039100,6.32000
 0.00000039200,6.32000
 0.00000039300,6.32000
 0.00000039400,6.24000
 0.00000039500,6.08000
 0.00000039600,5.92000
 0.00000039700,5.76000
 0.00000039800,5.52000
 0.00000039900,5.28000
 0.00000040000,5.04000
 0.00000040100,4.80000
 0.00000040200,4.48000
 0.00000040300,4.08000
 0.00000040400,3.68000
 0.00000040500,3.28000
 0.00000040600,2.96000
 0.00000040700,2.56000
 0.00000040800,2.16000
 0.00000040900,1.68000
 0.00000041000,1.36000
 0.00000041100,1.04000
 0.00000041200,0.56000
 0.00000041300,0.40000
 0.00000041400,0.16000
 0.00000041500,-0.16000
 0.00000041600,-0.40000
 0.00000041700,-0.48000
 0.00000041800,-0.72000
 0.00000041900,-0.80000
 0.00000042000,-0.88000
 0.00000042100,-0.88000
 0.00000042200,-0.88000
 0.00000042300,-0.96000
 0.00000042400,-0.88000
 0.00000042500,-0.88000
 0.00000042600,-0.80000
 0.00000042700,-0.88000
 0.00000042800,-0.88000
 0.00000042900,-0.80000
 0.00000043000,-0.80000
 0.00000043100,-0.88000
 0.00000043200,-0.88000
 0.00000043300,-0.88000
 0.00000043400,-0.88000
 0.00000043500,-0.96000
 0.00000043600,-0.96000
 0.00000043700,-0.96000
 0.00000043800,-0.96000
 0.00000043900,-0.96000
 0.00000044000,-0.88000
 0.00000044100,-1.04000
 0.00000044200,-1.04000
 0.00000044300,-1.04000
 0.00000044400,-1.12000
 0.00000044500,-1.04000
 0.00000044600,-1.12000
 0.00000044700,-1.04000
 0.00000044800,-1.04000
 0.00000044900,-1.04000
 0.00000045000,-1.12000
 0.00000045100,-1.12000
 0.00000045200,-1.04000
 0.00000045300,-1.12000
 0.00000045400,-1.20000
 0.00000045500,-1.20000
 0.00000045600,-1.20000
 0.00000045700,-1.20000
 0.00000045800,-1.12000
 0.00000045900,-1.20000
 0.00000046000,-1.28000
 0.00000046100,-1.20000
 0.00000046200,-1.28000
 0.00000046300,-1.12000
 0.00000046400,-1.28000
 0.00000046500,-1.28000
 0.00000046600,-1.28000
 0.00000046700,-1.20000
 0.00000046800,-1.28000
 0.00000046900,-1.28000
 0.00000047000,-1.20000
 0.00000047100,-1.20000
 0.00000047200,-1.28000
 0.00000047300,-1.36000
 0.00000047400,-1.28000
 0.00000047500,-1.20000
 0.00000047600,-1.20000
 0.00000047700,-1.28000
 0.00000047800,-1.36000
 0.00000047900,-1.36000
 0.00000048000,-1.28000
 0.00000048100,-1.28000
 0.00000048200,-1.28000
 0.00000048300,-1.28000
 0.00000048400,-1.12000
 0.00000048500,-1.12000
 0.00000048600,-1.20000
 0.00000048700,-1.20000
 0.00000048800,-1.12000
 0.00000048900,-1.04000
 0.00000049000,-1.04000
 0.00000049100,-1.04000
 0.00000049200,-0.96000
 0.00000049300,-0.88000
 0.00000049400,-0.80000
 0.00000049500,-0.80000
 0.00000049600,-0.72000
 0.00000049700,-0.80000
 0.00000049800,-0.72000
 0.00000049900,-0.64000
 0.00000050000,-0.72000
 0.00000050100,-0.64000
 0.00000050200,-0.56000
 0.00000050300,-0.64000
 0.00000050400,-0.64000
 0.00000050500,-0.56000
 0.00000050600,-0.56000
 0.00000050700,-0.48000
 0.00000050800,-0.48000
 0.00000050900,-0.56000
 0.00000051000,-0.56000
 0.00000051100,-0.56000
 0.00000051200,-0.56000
 0.00000051300,-0.48000
 0.00000051400,-0.48000
 0.00000051500,-0.56000
 0.00000051600,-0.48000
 0.00000051700,-0.48000
 0.00000051800,-0.48000
 0.00000051900,-0.40000
 0.00000052000,-0.48000
 0.00000052100,-0.56000
 0.00000052200,-0.56000
 0.00000052300,-0.56000
 0.00000052400,-0.56000
 0.00000052500,-0.48000
 0.00000052600,-0.40000
 0.00000052700,-0.48000
 0.00000052800,-0.48000
 0.00000052900,-0.40000
 0.00000053000,-0.48000
 0.00000053100,-0.40000
 0.00000053200,-0.48000
 0.00000053300,-0.40000
 0.00000053400,-0.32000
 0.00000053500,-0.40000
 0.00000053600,-0.40000
 0.00000053700,-0.40000
 0.00000053800,-0.48000
 0.00000053900,-0.48000
 0.00000054000,-0.40000
 0.00000054100,-0.40000
 0.00000054200,-0.40000
 0.00000054300,-0.32000
 0.00000054400,-0.32000
 0.00000054500,-0.40000
 0.00000054600,-0.40000
 0.00000054700,-0.40000
 0.00000054800,-0.48000
 0.00000054900,-0.40000
 0.00000055000,-0.40000
 0.00000055100,-0.48000
 0.00000055200,-0.40000
 0.00000055300,-0.40000
 0.00000055400,-0.40000
 0.00000055500,-0.32000
 0.00000055600,-0.40000
 0.00000055700,-0.48000
 0.00000055800,-0.40000
 0.00000055900,-0.32000
 0.00000056000,-0.40000
 0.00000056100,-0.40000
 0.00000056200,-0.32000
 0.00000056300,-0.48000
 0.00000056400,-0.48000
 0.00000056500,-0.32000
 0.00000056600,-0.40000
 0.00000056700,-0.40000
 0.00000056800,-0.40000
 0.00000056900,-0.40000
 0.00000057000,-0.32000
 0.00000057100,-0.40000
 0.00000057200,-0.40000
 0.00000057300,-0.40000
 0.00000057400,-0.32000
 0.00000057500,-0.32000
 0.00000057600,-0.40000
 0.00000057700,-0.40000
 0.00000057800,-0.40000
 0.00000057900,-0.40000
 0.00000058000,-0.40000
 0.00000058100,-0.32000
 0.00000058200,-0.32000
 0.00000058300,-0.32000
 0.00000058400,-0.32000
 0.00000058500,-0.32000
 0.00000058600,-0.40000
 0.00000058700,-0.32000
 0.00000058800,-0.40000
 0.00000058900,-0.32000
 0.00000059000,-0.32000
 0.00000059100,-0.32000
 0.00000059200,-0.32000
 0.00000059300,-0.32000
 0.00000059400,-0.32000
 0.00000059500,-0.32000
 0.00000059600,-0.24000
 0.00000059700,-0.32000
 0.00000059800,-0.32000
 0.00000059900,-0.32000
 0.00000060000,-0.32000
 0.00000060100,-0.32000
 0.00000060200,-0.32000
 0.00000060300,-0.24000
 0.00000060400,-0.32000
 0.00000060500,-0.32000
 0.00000060600,-0.24000
 0.00000060700,-0.24000
 0.00000060800,-0.16000
 0.00000060900,-0.32000
 0.00000061000,-0.32000
 0.00000061100,-0.32000
 0.00000061200,-0.24000
 0.00000061300,-0.32000
 0.00000061400,-0.32000
 0.00000061500,-0.32000
 0.00000061600,-0.16000
 0.00000061700,-0.16000
 0.00000061800,-0.32000
 0.00000061900,-0.24000
 0.00000062000,-0.32000
 0.00000062100,-0.16000
 0.00000062200,-0.32000
 0.00000062300,-0.24000
 0.00000062400,-0.32000
 0.00000062500,-0.24000
 0.00000062600,-0.16000
 0.00000062700,-0.24000
 0.00000062800,-0.16000
 0.00000062900,-0.32000
 0.00000063000,-0.16000
 0.00000063100,-0.24000
 0.00000063200,-0.16000
 0.00000063300,-0.32000
 0.00000063400,-0.24000
 0.00000063500,-0.32000
 0.00000063600,-0.32000
 0.00000063700,-0.16000
 0.00000063800,-0.24000
 0.00000063900,-0.16000
 0.00000064000,-0.24000
 0.00000064100,-0.16000
 0.00000064200,-0.24000
 0.00000064300,-0.24000
 0.00000064400,-0.24000
 0.00000064500,-0.24000
 0.00000064600,-0.16000
 0.00000064700,-0.24000
 0.00000064800,-0.24000
 0.00000064900,-0.16000
 0.00000065000,-0.16000
 0.00000065100,-0.32000
 0.00000065200,-0.32000
 0.00000065300,-0.32000
 0.00000065400,-0.24000
 0.00000065500,-0.24000
 0.00000065600,-0.16000
 0.00000065700,-0.24000
 0.00000065800,-0.24000
 0.00000065900,-0.24000
 0.00000066000,-0.24000
 0.00000066100,-0.24000
 0.00000066200,-0.16000
 0.00000066300,-0.24000
 0.00000066400,-0.16000
 0.00000066500,-0.16000
 0.00000066600,-0.24000
 0.00000066700,-0.24000
 0.00000066800,-0.16000
 0.00000066900,-0.24000
 0.00000067000,-0.24000
 0.00000067100,-0.16000
 0.00000067200,-0.16000
 0.00000067300,-0.16000
 0.00000067400,-0.16000
 0.00000067500,-0.16000
 0.00000067600,-0.24000
 0.00000067700,-0.16000
 0.00000067800,-0.24000
 0.00000067900,-0.16000
 0.00000068000,-0.16000
 0.00000068100,-0.24000
 0.00000068200,-0.16000
 0.00000068300,-0.16000
 0.00000068400,-0.24000
 0.00000068500,-0.24000
 0.00000068600,-0.16000
 0.00000068700,-0.24000
 0.00000068800,-0.24000
 0.00000068900,-0.16000
 0.00000069000,-0.24000
 0.00000069100,-0.24000
 0.00000069200,-0.24000
 0.00000069300,-0.24000
 0.00000069400,-0.24000
 0.00000069500,-0.24000
 0.00000069600,-0.16000
 0.00000069700,-0.16000
 0.00000069800,-0.16000
 0.00000069900,-0.08000
