Csv/taller 3/CSV.csv

Record Length,Analog:1400
Sample Interval,CH1:0.0000000010000
Vertical Units,CH1:V,,,
Vertical Scale,CH1:2.00,,,
Vertical Offset,CH1:-3.28000,,,
Horizontal Units,us,,,
Horizontal Scale,0.0200000000,,,
Model Number,SDS1202X-E,,,
Serial Number,SDS1EEFX6R4802,,,
Software Version,1.3.26,,,
Source,CH1
Second,Volt
 0.00000000000,-0.80000
 0.00000000100,-0.72000
 0.00000000200,-0.72000
 0.00000000300,-0.72000
 0.00000000400,-0.72000
 0.00000000500,-0.72000
 0.00000000600,-0.64000
 0.00000000700,-0.72000
 0.00000000800,-0.72000
 0.00000000900,-0.72000
 0.00000001000,-0.72000
 0.00000001100,-0.72000
 0.00000001200,-0.80000
 0.00000001300,-0.80000
 0.00000001400,-0.72000
 0.00000001500,-0.72000
 0.00000001600,-0.64000
 0.00000001700,-0.64000
 0.00000001800,-0.64000
 0.00000001900,-0.64000
 0.00000002000,-0.64000
 0.00000002100,-0.56000
 0.00000002200,-0.56000
 0.00000002300,-0.56000
 0.00000002400,-0.56000
 0.00000002500,-0.56000
 0.00000002600,-0.48000
 0.00000002700,-0.48000
 0.00000002800,-0.48000
 0.00000002900,-0.48000
 0.00000003000,-0.48000
 0.00000003100,-0.40000
 0.00000003200,-0.40000
 0.00000003300,-0.40000
 0.00000003400,-0.40000
 0.00000003500,-0.40000
 0.00000003600,-0.32000
 0.00000003700,-0.40000
 0.00000003800,-0.32000
 0.00000003900,-0.32000
 0.00000004000,-0.32000
 0.00000004100,-0.24000
 0.00000004200,-0.24000
 0.00000004300,-0.24000
 0.00000004400,-0.16000
 0.00000004500,-0.16000
 0.00000004600,-0.08000
 0.00000004700,-0.08000
 0.00000004800,-0.08000
 0.00000004900,-0.08000
 0.00000005000,-0.08000
 0.00000005100,0.00
 0.00000005200,0.00
 0.00000005300,0.00
 0.00000005400,0.00
 0.00000005500,0.00
 0.00000005600,0.08000
 0.00000005700,0.00
 0.00000005800,0.00
 0.00000005900,0.00
 0.00000006000,0.08000
 0.00000006100,0.16000
 0.00000006200,0.16000
 0.00000006300,0.24000
 0.00000006400,0.24000
 0.00000006500,0.32000
 0.00000006600,0.40000
 0.00000006700,0.32000
 0.00000006800,0.32000
 0.00000006900,0.32000
 0.00000007000,0.32000
 0.00000007100,0.40000
 0.00000007200,0.40000
 0.00000007300,0.40000
 0.00000007400,0.48000
 0.00000007500,0.56000
 0.00000007600,0.64000
 0.00000007700,0.64000
 0.00000007800,0.64000
 0.00000007900,0.64000
 0.00000008000,0.64000
 0.00000008100,0.72000
 0.00000008200,0.72000
 0.00000008300,0.72000
 0.00000008400,0.80000
 0.00000008500,0.80000
 0.00000008600,0.96000
 0.00000008700,0.96000
 0.00000008800,1.04000
 0.00000008900,1.04000
 0.00000009000,1.12000
 0.00000009100,1.20000
 0.00000009200,1.20000
 0.00000009300,1.20000
 0.00000009400,1.20000
 0.00000009500,1.28000
 0.00000009600,1.36000
 0.00000009700,1.36000
 0.00000009800,1.36000
 0.00000009900,1.36000
 0.00000010000,1.36000
 0.00000010100,1.44000
 0.00000010200,1.36000
 0.00000010300,1.36000
 0.00000010400,1.36000
 0.00000010500,1.36000
 0.00000010600,1.44000
 0.00000010700,1.44000
 0.00000010800,1.44000
 0.00000010900,1.52000
 0.00000011000,1.60000
 0.00000011100,1.68000
 0.00000011200,1.68000
 0.00000011300,1.68000
 0.00000011400,1.68000
 0.00000011500,1.68000
 0.00000011600,1.76000
 0.00000011700,1.76000
 0.00000011800,1.76000
 0.00000011900,1.84000
 0.00000012000,1.92000
 0.00000012100,2.00000
 0.00000012200,2.00000
 0.00000012300,1.92000
 0.00000012400,1.92000
 0.00000012500,1.92000
 0.00000012600,2.00000
 0.00000012700,2.00000
 0.00000012800,2.00000
 0.00000012900,2.08000
 0.00000013000,2.16000
 0.00000013100,2.24000
 0.00000013200,2.24000
 0.00000013300,2.24000
 0.00000013400,2.24000
 0.00000013500,2.24000
 0.00000013600,2.32000
 0.00000013700,2.24000
 0.00000013800,2.24000
 0.00000013900,2.24000
 0.00000014000,2.32000
 0.00000014100,2.40000
 0.00000014200,2.40000
 0.00000014300,2.40000
 0.00000014400,2.48000
 0.00000014500,2.48000
 0.00000014600,2.56000
 0.00000014700,2.48000
 0.00000014800,2.48000
 0.00000014900,2.48000
 0.00000015000,2.48000
 0.00000015100,2.56000
 0.00000015200,2.48000
 0.00000015300,2.48000
 0.00000015400,2.56000
 0.00000015500,2.56000
 0.00000015600,2.64000
 0.00000015700,2.64000
 0.00000015800,2.64000
 0.00000015900,2.64000
 0.00000016000,2.64000
 0.00000016100,2.72000
 0.00000016200,2.72000
 0.00000016300,2.72000
 0.00000016400,2.72000
 0.00000016500,2.80000
 0.00000016600,2.88000
 0.00000016700,2.88000
 0.00000016800,2.88000
 0.00000016900,2.88000
 0.00000017000,2.88000
 0.00000017100,2.96000
 0.00000017200,2.88000
 0.00000017300,2.88000
 0.00000017400,2.88000
 0.00000017500,2.96000
 0.00000017600,3.04000
 0.00000017700,3.04000
 0.00000017800,3.04000
 0.00000017900,3.12000
 0.00000018000,3.20000
 0.00000018100,3.28000
 0.00000018200,3.28000
 0.00000018300,3.20000
 0.00000018400,3.20000
 0.00000018500,3.20000
 0.00000018600,3.28000
 0.00000018700,3.20000
 0.00000018800,3.20000
 0.00000018900,3.20000
 0.00000019000,3.20000
 0.00000019100,3.28000
 0.00000019200,3.20000
 0.00000019300,3.20000
 0.00000019400,3.28000
 0.00000019500,3.28000
 0.00000019600,3.36000
 0.00000019700,3.36000
 0.00000019800,3.36000
 0.00000019900,3.44000
 0.00000020000,3.44000
 0.00000020100,3.52000
 0.00000020200,3.44000
 0.00000020300,3.44000
 0.00000020400,3.44000
 0.00000020500,3.44000
 0.00000020600,3.52000
 0.00000020700,3.44000
 0.00000020800,3.52000
 0.00000020900,3.52000
 0.00000021000,3.52000
 0.00000021100,3.60000
 0.00000021200,3.52000
 0.00000021300,3.52000
 0.00000021400,3.52000
 0.00000021500,3.52000
 0.00000021600,3.60000
 0.00000021700,3.52000
 0.00000021800,3.52000
 0.00000021900,3.60000
 0.00000022000,3.60000
 0.00000022100,3.68000
 0.00000022200,3.60000
 0.00000022300,3.60000
 0.00000022400,3.60000
 0.00000022500,3.60000
 0.00000022600,3.68000
 0.00000022700,3.60000
 0.00000022800,3.60000
 0.00000022900,3.68000
 0.00000023000,3.68000
 0.00000023100,3.76000
 0.00000023200,3.76000
 0.00000023300,3.76000
 0.00000023400,3.76000
 0.00000023500,3.76000
 0.00000023600,3.84000
 0.00000023700,3.84000
 0.00000023800,3.84000
 0.00000023900,3.84000
 0.00000024000,3.84000
 0.00000024100,3.92000
 0.00000024200,3.84000
 0.00000024300,3.84000
 0.00000024400,3.92000
 0.00000024500,3.92000
 0.00000024600,4.00000
 0.00000024700,4.00000
 0.00000024800,4.00000
 0.00000024900,4.08000
 0.00000025000,4.08000
 0.00000025100,4.16000
 0.00000025200,4.08000
 0.00000025300,4.08000
 0.00000025400,4.08000
 0.00000025500,4.08000
 0.00000025600,4.08000
 0.00000025700,4.00000
 0.00000025800,4.00000
 0.00000025900,4.00000
 0.00000026000,4.00000
 0.00000026100,4.08000
 0.00000026200,4.00000
 0.00000026300,4.00000
 0.00000026400,4.08000
 0.00000026500,4.08000
 0.00000026600,4.16000
 0.00000026700,4.16000
 0.00000026800,4.16000
 0.00000026900,4.24000
 0.00000027000,4.24000
 0.00000027100,4.32000
 0.00000027200,4.24000
 0.00000027300,4.24000
 0.00000027400,4.24000
 0.00000027500,4.24000
 0.00000027600,4.24000
 0.00000027700,4.16000
 0.00000027800,4.16000
 0.00000027900,4.16000
 0.00000028000,4.16000
 0.00000028100,4.24000
 0.00000028200,4.24000
 0.00000028300,4.24000
 0.00000028400,4.24000
 0.00000028500,4.24000
 0.00000028600,4.32000
 0.00000028700,4.24000
 0.00000028800,4.24000
 0.00000028900,4.32000
 0.00000029000,4.32000
 0.00000029100,4.40000
 0.00000029200,4.40000
 0.00000029300,4.40000
 0.00000029400,4.40000
 0.00000029500,4.48000
 0.00000029600,4.56000
 0.00000029700,4.48000
 0.00000029800,4.48000
 0.00000029900,4.48000
 0.00000030000,4.48000
 0.00000030100,4.56000
 0.00000030200,4.48000
 0.00000030300,4.48000
 0.00000030400,4.48000
 0.00000030500,4.48000
 0.00000030600,4.56000
 0.00000030700,4.48000
 0.00000030800,4.56000
 0.00000030900,4.56000
 0.00000031000,4.56000
 0.00000031100,4.64000
 0.00000031200,4.56000
 0.00000031300,4.56000
 0.00000031400,4.56000
 0.00000031500,4.56000
 0.00000031600,4.64000
 0.00000031700,4.56000
 0.00000031800,4.56000
 0.00000031900,4.64000
 0.00000032000,4.64000
 0.00000032100,4.72000
 0.00000032200,4.72000
 0.00000032300,4.72000
 0.00000032400,4.72000
 0.00000032500,4.72000
 0.00000032600,4.80000
 0.00000032700,4.72000
 0.00000032800,4.72000
 0.00000032900,4.80000
 0.00000033000,4.80000
 0.00000033100,4.88000
 0.00000033200,4.88000
 0.00000033300,4.88000
 0.00000033400,4.88000
 0.00000033500,4.96000
 0.00000033600,5.04000
 0.00000033700,5.04000
 0.00000033800,5.04000
 0.00000033900,5.12000
 0.00000034000,5.12000
 0.00000034100,5.20000
 0.00000034200,5.12000
 0.00000034300,5.12000
 0.00000034400,5.12000
 0.00000034500,5.12000
 0.00000034600,5.20000
 0.00000034700,5.12000
 0.00000034800,5.12000
 0.00000034900,5.20000
 0.00000035000,5.20000
 0.00000035100,5.28000
 0.00000035200,5.28000
 0.00000035300,5.28000
 0.00000035400,5.28000
 0.00000035500,5.28000
 0.00000035600,5.36000
 0.00000035700,5.28000
 0.00000035800,5.28000
 0.00000035900,5.36000
 0.00000036000,5.36000
 0.00000036100,5.44000
 0.00000036200,5.44000
 0.00000036300,5.44000
 0.00000036400,5.44000
 0.00000036500,5.52000
 0.00000036600,5.60000
 0.00000036700,5.60000
 0.00000036800,5.60000
 0.00000036900,5.60000
 0.00000037000,5.68000
 0.00000037100,5.76000
 0.00000037200,5.68000
 0.00000037300,5.68000
 0.00000037400,5.76000
 0.00000037500,5.76000
 0.00000037600,5.84000
 0.00000037700,5.84000
 0.00000037800,5.84000
 0.00000037900,5.84000
 0.00000038000,5.92000
 0.00000038100,6.00000
 0.00000038200,6.00000
 0.00000038300,6.00000
 0.00000038400,6.00000
 0.00000038500,6.00000
 0.00000038600,6.08000
 0.00000038700,6.00000
 0.00000038800,6.00000
 0.00000038900,6.00000
 0.00000039000,6.08000
 0.00000039100,6.16000
 0.00000039200,6.16000
 0.00000039300,6.16000
 0.00000039400,6.16000
 0.00000039500,6.24000
 0.00000039600,6.32000
 0.00000039700,6.32000
 0.00000039800,6.32000
 0.00000039900,6.32000
 0.00000040000,6.32000
 0.00000040100,6.40000
 0.00000040200,6.32000
 0.00000040300,6.32000
 0.00000040400,6.32000
 0.00000040500,6.40000
 0.00000040600,6.48000
 0.00000040700,6.48000
 0.00000040800,6.48000
 0.00000040900,6.56000
 0.00000041000,6.64000
 0.00000041100,6.72000
 0.00000041200,6.72000
 0.00000041300,6.72000
 0.00000041400,6.72000
 0.00000041500,6.72000
 0.00000041600,6.80000
 0.00000041700,6.72000
 0.00000041800,6.72000
 0.00000041900,6.72000
 0.00000042000,6.72000
 0.00000042100,6.80000
 0.00000042200,6.72000
 0.00000042300,6.72000
 0.00000042400,6.80000
 0.00000042500,6.80000
 0.00000042600,6.88000
 0.00000042700,6.80000
 0.00000042800,6.80000
 0.00000042900,6.88000
 0.00000043000,6.88000
 0.00000043100,6.96000
 0.00000043200,6.88000
 0.00000043300,6.88000
 0.00000043400,6.96000
 0.00000043500,6.96000
 0.00000043600,7.04000
 0.00000043700,6.96000
 0.00000043800,6.96000
 0.00000043900,7.04000
 0.00000044000,7.04000
 0.00000044100,7.12000
 0.00000044200,7.04000
 0.00000044300,7.04000
 0.00000044400,7.12000
 0.00000044500,7.12000
 0.00000044600,7.20000
 0.00000044700,7.12000
 0.00000044800,7.12000
 0.00000044900,7.20000
 0.00000045000,7.20000
 0.00000045100,7.28000
 0.00000045200,7.20000
 0.00000045300,7.20000
 0.00000045400,7.28000
 0.00000045500,7.28000
 0.00000045600,7.36000
 0.00000045700,7.28000
 0.00000045800,7.36000
 0.00000045900,7.36000
 0.00000046000,7.36000
 0.00000046100,7.44000
 0.00000046200,7.36000
 0.00000046300,7.36000
 0.00000046400,7.36000
 0.00000046500,7.44000
 0.00000046600,7.52000
 0.00000046700,7.52000
 0.00000046800,7.52000
 0.00000046900,7.52000
 0.00000047000,7.60000
 0.00000047100,7.68000
 0.00000047200,7.60000
 0.00000047300,7.60000
 0.00000047400,7.60000
 0.00000047500,7.60000
 0.00000047600,7.68000
 0.00000047700,7.60000
 0.00000047800,7.60000
 0.00000047900,7.60000
 0.00000048000,7.68000
 0.00000048100,7.76000
 0.00000048200,7.68000
 0.00000048300,7.68000
 0.00000048400,7.68000
 0.00000048500,7.68000
 0.00000048600,7.76000
 0.00000048700,7.68000
 0.00000048800,7.68000
 0.00000048900,7.68000
 0.00000049000,7.68000
 0.00000049100,7.76000
 0.00000049200,7.76000
 0.00000049300,7.76000
 0.00000049400,7.76000
 0.00000049500,7.84000
 0.00000049600,7.92000
 0.00000049700,7.84000
 0.00000049800,7.84000
 0.00000049900,7.84000
 0.00000050000,7.84000
 0.00000050100,7.92000
 0.00000050200,7.84000
 0.00000050300,7.84000
 0.00000050400,7.84000
 0.00000050500,7.92000
 0.00000050600,8.00000
 0.00000050700,7.92000
 0.00000050800,7.92000
 0.00000050900,7.92000
 0.00000051000,7.92000
 0.00000051100,8.00000
 0.00000051200,7.92000
 0.00000051300,7.92000
 0.00000051400,7.92000
 0.00000051500,7.92000
 0.00000051600,8.00000
 0.00000051700,8.00000
 0.00000051800,8.00000
 0.00000051900,8.00000
 0.00000052000,8.08000
 0.00000052100,8.16000
 0.00000052200,8.08000
 0.00000052300,8.08000
 0.00000052400,8.08000
 0.00000052500,8.08000
 0.00000052600,8.16000
 0.00000052700,8.08000
 0.00000052800,8.08000
 0.00000052900,8.08000
 0.00000053000,8.16000
 0.00000053100,8.24000
 0.00000053200,8.24000
 0.00000053300,8.24000
 0.00000053400,8.24000
 0.00000053500,8.24000
 0.00000053600,8.32000
 0.00000053700,8.24000
 0.00000053800,8.24000
 0.00000053900,8.24000
 0.00000054000,8.24000
 0.00000054100,8.32000
 0.00000054200,8.24000
 0.00000054300,8.24000
 0.00000054400,8.32000
 0.00000054500,8.32000
 0.00000054600,8.40000
 0.00000054700,8.32000
 0.00000054800,8.32000
 0.00000054900,8.32000
 0.00000055000,8.32000
 0.00000055100,8.40000
 0.00000055200,8.32000
 0.00000055300,8.32000
 0.00000055400,8.32000
 0.00000055500,8.32000
 0.00000055600,8.40000
 0.00000055700,8.32000
 0.00000055800,8.32000
 0.00000055900,8.32000
 0.00000056000,8.32000
 0.00000056100,8.40000
 0.00000056200,8.32000
 0.00000056300,8.32000
 0.00000056400,8.40000
 0.00000056500,8.40000
 0.00000056600,8.48000
 0.00000056700,8.40000
 0.00000056800,8.40000
 0.00000056900,8.48000
 0.00000057000,8.48000
 0.00000057100,8.56000
 0.00000057200,8.48000
 0.00000057300,8.56000
 0.00000057400,8.56000
 0.00000057500,8.56000
 0.00000057600,8.64000
 0.00000057700,8.56000
 0.00000057800,8.56000
 0.00000057900,8.56000
 0.00000058000,8.56000
 0.00000058100,8.64000
 0.00000058200,8.56000
 0.00000058300,8.56000
 0.00000058400,8.64000
 0.00000058500,8.64000
 0.00000058600,8.72000
 0.00000058700,8.64000
 0.00000058800,8.64000
 0.00000058900,8.56000
 0.00000059000,8.56000
 0.00000059100,8.64000
 0.00000059200,8.56000
 0.00000059300,8.56000
 0.00000059400,8.56000
 0.00000059500,8.64000
 0.00000059600,8.72000
 0.00000059700,8.72000
 0.00000059800,8.72000
 0.00000059900,8.72000
 0.00000060000,8.72000
 0.00000060100,8.80000
 0.00000060200,8.72000
 0.00000060300,8.64000
 0.00000060400,8.64000
 0.00000060500,8.64000
 0.00000060600,8.72000
 0.00000060700,8.64000
 0.00000060800,8.64000
 0.00000060900,8.72000
 0.00000061000,8.72000
 0.00000061100,8.80000
 0.00000061200,8.72000
 0.00000061300,8.72000
 0.00000061400,8.72000
 0.00000061500,8.72000
 0.00000061600,8.80000
 0.00000061700,8.72000
 0.00000061800,8.72000
 0.00000061900,8.80000
 0.00000062000,8.80000
 0.00000062100,8.88000
 0.00000062200,8.80000
 0.00000062300,8.80000
 0.00000062400,8.80000
 0.00000062500,8.80000
 0.00000062600,8.88000
 0.00000062700,8.80000
 0.00000062800,8.80000
 0.00000062900,8.80000
 0.00000063000,8.80000
 0.00000063100,8.88000
 0.00000063200,8.80000
 0.00000063300,8.80000
 0.00000063400,8.72000
 0.00000063500,8.72000
 0.00000063600,8.80000
 0.00000063700,8.72000
 0.00000063800,8.72000
 0.00000063900,8.72000
 0.00000064000,8.80000
 0.00000064100,8.88000
 0.00000064200,8.80000
 0.00000064300,8.80000
 0.00000064400,8.80000
 0.00000064500,8.80000
 0.00000064600,8.88000
 0.00000064700,8.80000
 0.00000064800,8.80000
 0.00000064900,8.80000
 0.00000065000,8.80000
 0.00000065100,8.88000
 0.00000065200,8.80000
 0.00000065300,8.80000
 0.00000065400,8.72000
 0.00000065500,8.72000
 0.00000065600,8.80000
 0.00000065700,8.72000
 0.00000065800,8.72000
 0.00000065900,8.72000
 0.00000066000,8.80000
 0.00000066100,8.88000
 0.00000066200,8.80000
 0.00000066300,8.80000
 0.00000066400,8.80000
 0.00000066500,8.80000
 0.00000066600,8.88000
 0.00000066700,8.80000
 0.00000066800,8.72000
 0.00000066900,8.72000
 0.00000067000,8.72000
 0.00000067100,8.80000
 0.00000067200,8.72000
 0.00000067300,8.72000
 0.00000067400,8.80000
 0.00000067500,8.80000
 0.00000067600,8.88000
 0.00000067700,8.80000
 0.00000067800,8.80000
 0.00000067900,8.72000
 0.00000068000,8.72000
 0.00000068100,8.80000
 0.00000068200,8.72000
 0.00000068300,8.72000
 0.00000068400,8.72000
 0.00000068500,8.80000
 0.00000068600,8.88000
 0.00000068700,8.88000
 0.00000068800,8.88000
 0.00000068900,8.88000
 0.00000069000,8.88000
 0.00000069100,8.96000
 0.00000069200,8.88000
 0.00000069300,8.88000
 0.00000069400,8.88000
 0.00000069500,8.88000
 0.00000069600,8.88000
 0.00000069700,8.80000
 0.00000069800,8.72000
 0.00000069900,8.72000
 0.00000070000,8.64000
 0.00000070100,8.72000
 0.00000070200,8.64000
 0.00000070300,8.64000
 0.00000070400,8.64000
 0.00000070500,8.72000
 0.00000070600,8.80000
 0.00000070700,8.80000
 0.00000070800,8.80000
 0.00000070900,8.80000
 0.00000071000,8.80000
 0.00000071100,8.88000
 0.00000071200,8.80000
 0.00000071300,8.80000
 0.00000071400,8.72000
 0.00000071500,8.72000
 0.00000071600,8.80000
 0.00000071700,8.72000
 0.00000071800,8.72000
 0.00000071900,8.72000
 0.00000072000,8.72000
 0.00000072100,8.80000
 0.00000072200,8.72000
 0.00000072300,8.72000
 0.00000072400,8.64000
 0.00000072500,8.64000
 0.00000072600,8.72000
 0.00000072700,8.64000
 0.00000072800,8.64000
 0.00000072900,8.64000
 0.00000073000,8.64000
 0.00000073100,8.72000
 0.00000073200,8.64000
 0.00000073300,8.64000
 0.00000073400,8.64000
 0.00000073500,8.72000
 0.00000073600,8.80000
 0.00000073700,8.72000
 0.00000073800,8.72000
 0.00000073900,8.72000
 0.00000074000,8.72000
 0.00000074100,8.80000
 0.00000074200,8.72000
 0.00000074300,8.64000
 0.00000074400,8.56000
 0.00000074500,8.56000
 0.00000074600,8.64000
 0.00000074700,8.56000
 0.00000074800,8.56000
 0.00000074900,8.64000
 0.00000075000,8.72000
 0.00000075100,8.80000
 0.00000075200,8.72000
 0.00000075300,8.72000
 0.00000075400,8.72000
 0.00000075500,8.72000
 0.00000075600,8.80000
 0.00000075700,8.72000
 0.00000075800,8.72000
 0.00000075900,8.72000
 0.00000076000,8.72000
 0.00000076100,8.80000
 0.00000076200,8.72000
 0.00000076300,8.72000
 0.00000076400,8.72000
 0.00000076500,8.72000
 0.00000076600,8.80000
 0.00000076700,8.72000
 0.00000076800,8.72000
 0.00000076900,8.72000
 0.00000077000,8.72000
 0.00000077100,8.80000
 0.00000077200,8.72000
 0.00000077300,8.72000
 0.00000077400,8.72000
 0.00000077500,8.72000
 0.00000077600,8.80000
 0.00000077700,8.72000
 0.00000077800,8.72000
 0.00000077900,8.72000
 0.00000078000,8.72000
 0.00000078100,8.80000
 0.00000078200,8.72000
 0.00000078300,8.72000
 0.00000078400,8.72000
 0.00000078500,8.72000
 0.00000078600,8.80000
 0.00000078700,8.72000
 0.00000078800,8.72000
 0.00000078900,8.72000
 0.00000079000,8.72000
 0.00000079100,8.80000
 0.00000079200,8.72000
 0.00000079300,8.72000
 0.00000079400,8.72000
 0.00000079500,8.72000
 0.00000079600,8.80000
 0.00000079700,8.72000
 0.00000079800,8.72000
 0.00000079900,8.72000
 0.00000080000,8.72000
 0.00000080100,8.80000
 0.00000080200,8.72000
 0.00000080300,8.64000
 0.00000080400,8.64000
 0.00000080500,8.64000
 0.00000080600,8.72000
 0.00000080700,8.64000
 0.00000080800,8.64000
 0.00000080900,8.64000
 0.00000081000,8.64000
 0.00000081100,8.72000
 0.00000081200,8.64000
 0.00000081300,8.56000
 0.00000081400,8.56000
 0.00000081500,8.56000
 0.00000081600,8.64000
 0.00000081700,8.56000
 0.00000081800,8.56000
 0.00000081900,8.64000
 0.00000082000,8.64000
 0.00000082100,8.72000
 0.00000082200,8.64000
 0.00000082300,8.64000
 0.00000082400,8.64000
 0.00000082500,8.64000
 0.00000082600,8.72000
 0.00000082700,8.64000
 0.00000082800,8.64000
 0.00000082900,8.72000
 0.00000083000,8.72000
 0.00000083100,8.80000
 0.00000083200,8.72000
 0.00000083300,8.72000
 0.00000083400,8.64000
 0.00000083500,8.64000
 0.00000083600,8.72000
 0.00000083700,8.64000
 0.00000083800,8.64000
 0.00000083900,8.64000
 0.00000084000,8.64000
 0.00000084100,8.72000
 0.00000084200,8.64000
 0.00000084300,8.64000
 0.00000084400,8.64000
 0.00000084500,8.64000
 0.00000084600,8.72000
 0.00000084700,8.64000
 0.00000084800,8.64000
 0.00000084900,8.64000
 0.00000085000,8.72000
 0.00000085100,8.80000
 0.00000085200,8.72000
 0.00000085300,8.72000
