Csv/taller 3/CSV3.csv

Record Length,Analog:1400
Sample Interval,CH1:0.0000000010000
Vertical Units,CH1:V,,,
Vertical Scale,CH1:2.00,,,
Vertical Offset,CH1:-1.92000,,,
Horizontal Units,us,,,
Horizontal Scale,0.0200000000,,,
Model Number,SDS1202X-E,,,
Serial Number,SDS1EEFX6R4802,,,
Software Version,1.3.26,,,
Source,CH1
Second,Volt
 0.00000000000,-0.88000
 0.00000000100,-0.96000
 0.00000000200,-0.96000
 0.00000000300,-0.96000
 0.00000000400,-0.96000
 0.00000000500,-0.88000
 0.00000000600,-0.96000
 0.00000000700,-0.96000
 0.00000000800,-0.96000
 0.00000000900,-0.96000
 0.00000001000,-0.88000
 0.00000001100,-0.96000
 0.00000001200,-0.96000
 0.00000001300,-0.96000
 0.00000001400,-0.96000
 0.00000001500,-0.96000
 0.00000001600,-1.04000
 0.00000001700,-1.04000
 0.00000001800,-1.04000
 0.00000001900,-1.04000
 0.00000002000,-0.96000
 0.00000002100,-0.96000
 0.00000002200,-0.96000
 0.00000002300,-0.96000
 0.00000002400,-0.96000
 0.00000002500,-0.88000
 0.00000002600,-0.96000
 0.00000002700,-0.96000
 0.00000002800,-0.96000
 0.00000002900,-0.96000
 0.00000003000,-0.88000
 0.00000003100,-0.88000
 0.00000003200,-0.88000
 0.00000003300,-0.88000
 0.00000003400,-0.88000
 0.00000003500,-0.80000
 0.00000003600,-0.88000
 0.00000003700,-0.88000
 0.00000003800,-0.88000
 0.00000003900,-0.96000
 0.00000004000,-0.88000
 0.00000004100,-0.96000
 0.00000004200,-0.96000
 0.00000004300,-0.96000
 0.00000004400,-0.96000
 0.00000004500,-0.88000
 0.00000004600,-0.96000
 0.00000004700,-0.96000
 0.00000004800,-0.96000
 0.00000004900,-1.04000
 0.00000005000,-0.96000
 0.00000005100,-1.04000
 0.00000005200,-1.04000
 0.00000005300,-0.96000
 0.00000005400,-0.96000
 0.00000005500,-0.88000
 0.00000005600,-0.96000
 0.00000005700,-0.96000
 0.00000005800,-0.96000
 0.00000005900,-0.96000
 0.00000006000,-0.88000
 0.00000006100,-0.96000
 0.00000006200,-0.96000
 0.00000006300,-0.88000
 0.00000006400,-0.88000
 0.00000006500,-0.80000
 0.00000006600,-0.80000
 0.00000006700,-0.80000
 0.00000006800,-0.80000
 0.00000006900,-0.80000
 0.00000007000,-0.72000
 0.00000007100,-0.72000
 0.00000007200,-0.72000
 0.00000007300,-0.72000
 0.00000007400,-0.72000
 0.00000007500,-0.64000
 0.00000007600,-0.72000
 0.00000007700,-0.72000
 0.00000007800,-0.72000
 0.00000007900,-0.72000
 0.00000008000,-0.64000
 0.00000008100,-0.72000
 0.00000008200,-0.72000
 0.00000008300,-0.64000
 0.00000008400,-0.64000
 0.00000008500,-0.56000
 0.00000008600,-0.56000
 0.00000008700,-0.56000
 0.00000008800,-0.56000
 0.00000008900,-0.56000
 0.00000009000,-0.48000
 0.00000009100,-0.56000
 0.00000009200,-0.56000
 0.00000009300,-0.56000
 0.00000009400,-0.56000
 0.00000009500,-0.48000
 0.00000009600,-0.48000
 0.00000009700,-0.48000
 0.00000009800,-0.48000
 0.00000009900,-0.40000
 0.00000010000,-0.32000
 0.00000010100,-0.32000
 0.00000010200,-0.32000
 0.00000010300,-0.32000
 0.00000010400,-0.32000
 0.00000010500,-0.24000
 0.00000010600,-0.24000
 0.00000010700,-0.24000
 0.00000010800,-0.24000
 0.00000010900,-0.16000
 0.00000011000,-0.08000
 0.00000011100,-0.08000
 0.00000011200,0.00
 0.00000011300,0.00
 0.00000011400,0.08000
 0.00000011500,0.16000
 0.00000011600,0.16000
 0.00000011700,0.16000
 0.00000011800,0.16000
 0.00000011900,0.16000
 0.00000012000,0.24000
 0.00000012100,0.16000
 0.00000012200,0.16000
 0.00000012300,0.24000
 0.00000012400,0.24000
 0.00000012500,0.32000
 0.00000012600,0.32000
 0.00000012700,0.32000
 0.00000012800,0.32000
 0.00000012900,0.40000
 0.00000013000,0.48000
 0.00000013100,0.48000
 0.00000013200,0.48000
 0.00000013300,0.48000
 0.00000013400,0.48000
 0.00000013500,0.56000
 0.00000013600,0.56000
 0.00000013700,0.56000
 0.00000013800,0.56000
 0.00000013900,0.64000
 0.00000014000,0.72000
 0.00000014100,0.72000
 0.00000014200,0.72000
 0.00000014300,0.80000
 0.00000014400,0.88000
 0.00000014500,0.96000
 0.00000014600,0.96000
 0.00000014700,0.96000
 0.00000014800,1.04000
 0.00000014900,1.04000
 0.00000015000,1.12000
 0.00000015100,1.12000
 0.00000015200,1.12000
 0.00000015300,1.12000
 0.00000015400,1.12000
 0.00000015500,1.20000
 0.00000015600,1.20000
 0.00000015700,1.20000
 0.00000015800,1.20000
 0.00000015900,1.28000
 0.00000016000,1.36000
 0.00000016100,1.36000
 0.00000016200,1.36000
 0.00000016300,1.36000
 0.00000016400,1.36000
 0.00000016500,1.44000
 0.00000016600,1.36000
 0.00000016700,1.36000
 0.00000016800,1.36000
 0.00000016900,1.44000
 0.00000017000,1.52000
 0.00000017100,1.52000
 0.00000017200,1.52000
 0.00000017300,1.60000
 0.00000017400,1.68000
 0.00000017500,1.76000
 0.00000017600,1.76000
 0.00000017700,1.68000
 0.00000017800,1.68000
 0.00000017900,1.68000
 0.00000018000,1.76000
 0.00000018100,1.68000
 0.00000018200,1.68000
 0.00000018300,1.68000
 0.00000018400,1.76000
 0.00000018500,1.84000
 0.00000018600,1.84000
 0.00000018700,1.84000
 0.00000018800,1.84000
 0.00000018900,1.92000
 0.00000019000,2.00000
 0.00000019100,2.00000
 0.00000019200,2.00000
 0.00000019300,2.00000
 0.00000019400,2.08000
 0.00000019500,2.16000
 0.00000019600,2.16000
 0.00000019700,2.16000
 0.00000019800,2.16000
 0.00000019900,2.16000
 0.00000020000,2.24000
 0.00000020100,2.16000
 0.00000020200,2.24000
 0.00000020300,2.24000
 0.00000020400,2.32000
 0.00000020500,2.40000
 0.00000020600,2.40000
 0.00000020700,2.40000
 0.00000020800,2.40000
 0.00000020900,2.40000
 0.00000021000,2.48000
 0.00000021100,2.40000
 0.00000021200,2.32000
 0.00000021300,2.32000
 0.00000021400,2.32000
 0.00000021500,2.40000
 0.00000021600,2.40000
 0.00000021700,2.40000
 0.00000021800,2.48000
 0.00000021900,2.56000
 0.00000022000,2.64000
 0.00000022100,2.56000
 0.00000022200,2.56000
 0.00000022300,2.56000
 0.00000022400,2.56000
 0.00000022500,2.64000
 0.00000022600,2.56000
 0.00000022700,2.64000
 0.00000022800,2.64000
 0.00000022900,2.72000
 0.00000023000,2.80000
 0.00000023100,2.80000
 0.00000023200,2.72000
 0.00000023300,2.72000
 0.00000023400,2.72000
 0.00000023500,2.80000
 0.00000023600,2.72000
 0.00000023700,2.72000
 0.00000023800,2.80000
 0.00000023900,2.80000
 0.00000024000,2.96000
 0.00000024100,2.96000
 0.00000024200,3.04000
 0.00000024300,3.04000
 0.00000024400,3.04000
 0.00000024500,3.12000
 0.00000024600,3.04000
 0.00000024700,3.04000
 0.00000024800,2.96000
 0.00000024900,2.96000
 0.00000025000,3.04000
 0.00000025100,3.04000
 0.00000025200,3.04000
 0.00000025300,3.04000
 0.00000025400,3.12000
 0.00000025500,3.20000
 0.00000025600,3.12000
 0.00000025700,3.12000
 0.00000025800,3.12000
 0.00000025900,3.12000
 0.00000026000,3.20000
 0.00000026100,3.20000
 0.00000026200,3.20000
 0.00000026300,3.20000
 0.00000026400,3.28000
 0.00000026500,3.36000
 0.00000026600,3.28000
 0.00000026700,3.28000
 0.00000026800,3.28000
 0.00000026900,3.28000
 0.00000027000,3.36000
 0.00000027100,3.28000
 0.00000027200,3.28000
 0.00000027300,3.36000
 0.00000027400,3.36000
 0.00000027500,3.44000
 0.00000027600,3.36000
 0.00000027700,3.36000
 0.00000027800,3.44000
 0.00000027900,3.44000
 0.00000028000,3.52000
 0.00000028100,3.52000
 0.00000028200,3.52000
 0.00000028300,3.52000
 0.00000028400,3.60000
 0.00000028500,3.68000
 0.00000028600,3.60000
 0.00000028700,3.60000
 0.00000028800,3.60000
 0.00000028900,3.60000
 0.00000029000,3.60000
 0.00000029100,3.52000
 0.00000029200,3.52000
 0.00000029300,3.52000
 0.00000029400,3.52000
 0.00000029500,3.60000
 0.00000029600,3.60000
 0.00000029700,3.60000
 0.00000029800,3.68000
 0.00000029900,3.68000
 0.00000030000,3.76000
 0.00000030100,3.68000
 0.00000030200,3.68000
 0.00000030300,3.68000
 0.00000030400,3.68000
 0.00000030500,3.76000
 0.00000030600,3.68000
 0.00000030700,3.68000
 0.00000030800,3.76000
 0.00000030900,3.76000
 0.00000031000,3.84000
 0.00000031100,3.76000
 0.00000031200,3.76000
 0.00000031300,3.76000
 0.00000031400,3.76000
 0.00000031500,3.84000
 0.00000031600,3.76000
 0.00000031700,3.76000
 0.00000031800,3.84000
 0.00000031900,3.84000
 0.00000032000,3.92000
 0.00000032100,3.84000
 0.00000032200,3.84000
 0.00000032300,3.84000
 0.00000032400,3.84000
 0.00000032500,3.92000
 0.00000032600,3.84000
 0.00000032700,3.84000
 0.00000032800,3.84000
 0.00000032900,3.92000
 0.00000033000,4.00000
 0.00000033100,4.00000
 0.00000033200,4.00000
 0.00000033300,4.00000
 0.00000033400,4.00000
 0.00000033500,4.08000
 0.00000033600,4.00000
 0.00000033700,4.00000
 0.00000033800,4.00000
 0.00000033900,4.00000
 0.00000034000,4.08000
 0.00000034100,4.00000
 0.00000034200,4.00000
 0.00000034300,4.00000
 0.00000034400,4.08000
 0.00000034500,4.16000
 0.00000034600,4.16000
 0.00000034700,4.16000
 0.00000034800,4.16000
 0.00000034900,4.16000
 0.00000035000,4.24000
 0.00000035100,4.16000
 0.00000035200,4.16000
 0.00000035300,4.16000
 0.00000035400,4.16000
 0.00000035500,4.24000
 0.00000035600,4.16000
 0.00000035700,4.24000
 0.00000035800,4.24000
 0.00000035900,4.24000
 0.00000036000,4.32000
 0.00000036100,4.24000
 0.00000036200,4.24000
 0.00000036300,4.24000
 0.00000036400,4.24000
 0.00000036500,4.32000
 0.00000036600,4.24000
 0.00000036700,4.24000
 0.00000036800,4.32000
 0.00000036900,4.32000
 0.00000037000,4.40000
 0.00000037100,4.32000
 0.00000037200,4.32000
 0.00000037300,4.32000
 0.00000037400,4.32000
 0.00000037500,4.40000
 0.00000037600,4.32000
 0.00000037700,4.32000
 0.00000037800,4.32000
 0.00000037900,4.32000
 0.00000038000,4.40000
 0.00000038100,4.32000
 0.00000038200,4.32000
 0.00000038300,4.32000
 0.00000038400,4.32000
 0.00000038500,4.40000
 0.00000038600,4.32000
 0.00000038700,4.32000
 0.00000038800,4.32000
 0.00000038900,4.32000
 0.00000039000,4.40000
 0.00000039100,4.32000
 0.00000039200,4.32000
 0.00000039300,4.40000
 0.00000039400,4.40000
 0.00000039500,4.48000
 0.00000039600,4.40000
 0.00000039700,4.40000
 0.00000039800,4.40000
 0.00000039900,4.40000
 0.00000040000,4.48000
 0.00000040100,4.40000
 0.00000040200,4.40000
 0.00000040300,4.40000
 0.00000040400,4.40000
 0.00000040500,4.48000
 0.00000040600,4.40000
 0.00000040700,4.40000
 0.00000040800,4.48000
 0.00000040900,4.48000
 0.00000041000,4.56000
 0.00000041100,4.48000
 0.00000041200,4.48000
 0.00000041300,4.48000
 0.00000041400,4.48000
 0.00000041500,4.56000
 0.00000041600,4.48000
 0.00000041700,4.48000
 0.00000041800,4.48000
 0.00000041900,4.48000
 0.00000042000,4.56000
 0.00000042100,4.48000
 0.00000042200,4.48000
 0.00000042300,4.56000
 0.00000042400,4.56000
 0.00000042500,4.64000
 0.00000042600,4.56000
 0.00000042700,4.56000
 0.00000042800,4.56000
 0.00000042900,4.56000
 0.00000043000,4.64000
 0.00000043100,4.56000
 0.00000043200,4.56000
 0.00000043300,4.56000
 0.00000043400,4.56000
 0.00000043500,4.64000
 0.00000043600,4.56000
 0.00000043700,4.56000
 0.00000043800,4.56000
 0.00000043900,4.56000
 0.00000044000,4.64000
 0.00000044100,4.56000
 0.00000044200,4.56000
 0.00000044300,4.56000
 0.00000044400,4.56000
 0.00000044500,4.64000
 0.00000044600,4.56000
 0.00000044700,4.56000
 0.00000044800,4.56000
 0.00000044900,4.56000
 0.00000045000,4.64000
 0.00000045100,4.56000
 0.00000045200,4.56000
 0.00000045300,4.56000
 0.00000045400,4.56000
 0.00000045500,4.64000
 0.00000045600,4.56000
 0.00000045700,4.56000
 0.00000045800,4.56000
 0.00000045900,4.56000
 0.00000046000,4.64000
 0.00000046100,4.56000
 0.00000046200,4.56000
 0.00000046300,4.48000
 0.00000046400,4.48000
 0.00000046500,4.56000
 0.00000046600,4.48000
 0.00000046700,4.48000
 0.00000046800,4.48000
 0.00000046900,4.48000
 0.00000047000,4.56000
 0.00000047100,4.48000
 0.00000047200,4.48000
 0.00000047300,4.56000
 0.00000047400,4.56000
 0.00000047500,4.64000
 0.00000047600,4.64000
 0.00000047700,4.64000
 0.00000047800,4.64000
 0.00000047900,4.64000
 0.00000048000,4.72000
 0.00000048100,4.64000
 0.00000048200,4.64000
 0.00000048300,4.64000
 0.00000048400,4.56000
 0.00000048500,4.64000
 0.00000048600,4.56000
 0.00000048700,4.56000
 0.00000048800,4.56000
 0.00000048900,4.56000
 0.00000049000,4.64000
 0.00000049100,4.56000
 0.00000049200,4.56000
 0.00000049300,4.56000
 0.00000049400,4.56000
 0.00000049500,4.64000
 0.00000049600,4.56000
 0.00000049700,4.56000
 0.00000049800,4.56000
 0.00000049900,4.56000
 0.00000050000,4.64000
 0.00000050100,4.56000
 0.00000050200,4.56000
 0.00000050300,4.64000
 0.00000050400,4.64000
 0.00000050500,4.72000
 0.00000050600,4.64000
 0.00000050700,4.64000
 0.00000050800,4.64000
 0.00000050900,4.64000
 0.00000051000,4.72000
 0.00000051100,4.64000
 0.00000051200,4.64000
 0.00000051300,4.56000
 0.00000051400,4.56000
 0.00000051500,4.64000
 0.00000051600,4.56000
 0.00000051700,4.56000
 0.00000051800,4.56000
 0.00000051900,4.56000
 0.00000052000,4.64000
 0.00000052100,4.56000
 0.00000052200,4.56000
 0.00000052300,4.56000
 0.00000052400,4.56000
 0.00000052500,4.64000
 0.00000052600,4.56000
 0.00000052700,4.56000
 0.00000052800,4.56000
 0.00000052900,4.56000
 0.00000053000,4.64000
 0.00000053100,4.56000
 0.00000053200,4.64000
 0.00000053300,4.64000
 0.00000053400,4.64000
 0.00000053500,4.72000
 0.00000053600,4.64000
 0.00000053700,4.64000
 0.00000053800,4.64000
 0.00000053900,4.56000
 0.00000054000,4.64000
 0.00000054100,4.56000
 0.00000054200,4.56000
 0.00000054300,4.56000
 0.00000054400,4.56000
 0.00000054500,4.64000
 0.00000054600,4.56000
 0.00000054700,4.56000
 0.00000054800,4.56000
 0.00000054900,4.56000
 0.00000055000,4.64000
 0.00000055100,4.56000
 0.00000055200,4.56000
 0.00000055300,4.56000
 0.00000055400,4.56000
 0.00000055500,4.64000
 0.00000055600,4.56000
 0.00000055700,4.56000
 0.00000055800,4.56000
 0.00000055900,4.56000
 0.00000056000,4.64000
 0.00000056100,4.56000
 0.00000056200,4.56000
 0.00000056300,4.56000
 0.00000056400,4.56000
 0.00000056500,4.64000
 0.00000056600,4.56000
 0.00000056700,4.56000
 0.00000056800,4.56000
 0.00000056900,4.56000
 0.00000057000,4.64000
 0.00000057100,4.56000
 0.00000057200,4.56000
 0.00000057300,4.56000
 0.00000057400,4.56000
 0.00000057500,4.64000
 0.00000057600,4.56000
 0.00000057700,4.56000
 0.00000057800,4.56000
 0.00000057900,4.56000
 0.00000058000,4.64000
 0.00000058100,4.56000
 0.00000058200,4.56000
 0.00000058300,4.56000
 0.00000058400,4.56000
 0.00000058500,4.64000
 0.00000058600,4.56000
 0.00000058700,4.56000
 0.00000058800,4.56000
 0.00000058900,4.56000
 0.00000059000,4.64000
 0.00000059100,4.56000
 0.00000059200,4.56000
 0.00000059300,4.56000
 0.00000059400,4.56000
 0.00000059500,4.64000
 0.00000059600,4.56000
 0.00000059700,4.56000
 0.00000059800,4.56000
 0.00000059900,4.56000
 0.00000060000,4.64000
 0.00000060100,4.56000
 0.00000060200,4.56000
 0.00000060300,4.56000
 0.00000060400,4.56000
 0.00000060500,4.64000
 0.00000060600,4.56000
 0.00000060700,4.56000
 0.00000060800,4.56000
 0.00000060900,4.56000
 0.00000061000,4.64000
 0.00000061100,4.56000
 0.00000061200,4.56000
 0.00000061300,4.56000
 0.00000061400,4.56000
 0.00000061500,4.64000
 0.00000061600,4.56000
 0.00000061700,4.56000
 0.00000061800,4.56000
 0.00000061900,4.56000
 0.00000062000,4.64000
 0.00000062100,4.56000
 0.00000062200,4.56000
 0.00000062300,4.56000
 0.00000062400,4.56000
 0.00000062500,4.64000
 0.00000062600,4.56000
 0.00000062700,4.56000
 0.00000062800,4.56000
 0.00000062900,4.56000
 0.00000063000,4.64000
 0.00000063100,4.56000
 0.00000063200,4.56000
 0.00000063300,4.48000
 0.00000063400,4.48000
 0.00000063500,4.56000
 0.00000063600,4.48000
 0.00000063700,4.48000
 0.00000063800,4.48000
 0.00000063900,4.48000
 0.00000064000,4.56000
 0.00000064100,4.48000
 0.00000064200,4.48000
 0.00000064300,4.56000
 0.00000064400,4.56000
 0.00000064500,4.64000
 0.00000064600,4.56000
 0.00000064700,4.56000
 0.00000064800,4.56000
 0.00000064900,4.56000
 0.00000065000,4.64000
 0.00000065100,4.56000
 0.00000065200,4.56000
 0.00000065300,4.56000
 0.00000065400,4.48000
 0.00000065500,4.56000
 0.00000065600,4.48000
 0.00000065700,4.48000
 0.00000065800,4.48000
 0.00000065900,4.48000
 0.00000066000,4.56000
 0.00000066100,4.48000
 0.00000066200,4.56000
 0.00000066300,4.56000
 0.00000066400,4.56000
 0.00000066500,4.64000
 0.00000066600,4.56000
 0.00000066700,4.56000
 0.00000066800,4.56000
 0.00000066900,4.48000
 0.00000067000,4.56000
 0.00000067100,4.48000
 0.00000067200,4.48000
 0.00000067300,4.48000
 0.00000067400,4.48000
 0.00000067500,4.56000
 0.00000067600,4.48000
 0.00000067700,4.48000
 0.00000067800,4.48000
 0.00000067900,4.48000
 0.00000068000,4.56000
 0.00000068100,4.48000
 0.00000068200,4.48000
 0.00000068300,4.48000
 0.00000068400,4.48000
 0.00000068500,4.56000
 0.00000068600,4.48000
 0.00000068700,4.48000
 0.00000068800,4.48000
 0.00000068900,4.48000
 0.00000069000,4.56000
 0.00000069100,4.48000
 0.00000069200,4.48000
 0.00000069300,4.48000
 0.00000069400,4.48000
 0.00000069500,4.56000
 0.00000069600,4.48000
 0.00000069700,4.48000
 0.00000069800,4.48000
 0.00000069900,4.48000
 0.00000070000,4.56000
 0.00000070100,4.56000
 0.00000070200,4.56000
 0.00000070300,4.56000
 0.00000070400,4.56000
 0.00000070500,4.64000
 0.00000070600,4.56000
 0.00000070700,4.56000
 0.00000070800,4.48000
 0.00000070900,4.48000
 0.00000071000,4.56000
 0.00000071100,4.48000
 0.00000071200,4.48000
 0.00000071300,4.56000
 0.00000071400,4.56000
 0.00000071500,4.64000
 0.00000071600,4.56000
 0.00000071700,4.56000
 0.00000071800,4.56000
 0.00000071900,4.48000
 0.00000072000,4.56000
 0.00000072100,4.48000
 0.00000072200,4.48000
 0.00000072300,4.48000
 0.00000072400,4.48000
 0.00000072500,4.56000
 0.00000072600,4.48000
 0.00000072700,4.48000
 0.00000072800,4.48000
 0.00000072900,4.48000
 0.00000073000,4.56000
 0.00000073100,4.48000
 0.00000073200,4.48000
 0.00000073300,4.48000
 0.00000073400,4.48000
 0.00000073500,4.56000
 0.00000073600,4.48000
 0.00000073700,4.48000
 0.00000073800,4.48000
 0.00000073900,4.48000
 0.00000074000,4.56000
 0.00000074100,4.48000
 0.00000074200,4.48000
 0.00000074300,4.48000
 0.00000074400,4.48000
 0.00000074500,4.56000
 0.00000074600,4.48000
 0.00000074700,4.48000
 0.00000074800,4.48000
 0.00000074900,4.48000
 0.00000075000,4.56000
 0.00000075100,4.48000
 0.00000075200,4.48000
 0.00000075300,4.48000
 0.00000075400,4.48000
 0.00000075500,4.56000
 0.00000075600,4.48000
 0.00000075700,4.48000
 0.00000075800,4.48000
 0.00000075900,4.48000
 0.00000076000,4.56000
 0.00000076100,4.48000
 0.00000076200,4.48000
 0.00000076300,4.48000
 0.00000076400,4.40000
 0.00000076500,4.48000
 0.00000076600,4.40000
 0.00000076700,4.40000
 0.00000076800,4.40000
 0.00000076900,4.40000
 0.00000077000,4.48000
 0.00000077100,4.48000
 0.00000077200,4.48000
 0.00000077300,4.48000
 0.00000077400,4.48000
 0.00000077500,4.56000
 0.00000077600,4.48000
 0.00000077700,4.48000
 0.00000077800,4.40000
 0.00000077900,4.40000
 0.00000078000,4.48000
 0.00000078100,4.40000
 0.00000078200,4.40000
 0.00000078300,4.48000
 0.00000078400,4.48000
 0.00000078500,4.56000
 0.00000078600,4.48000
 0.00000078700,4.48000
 0.00000078800,4.48000
 0.00000078900,4.48000
 0.00000079000,4.56000
 0.00000079100,4.48000
 0.00000079200,4.48000
 0.00000079300,4.56000
 0.00000079400,4.56000
 0.00000079500,4.64000
 0.00000079600,4.56000
 0.00000079700,4.56000
 0.00000079800,4.56000
 0.00000079900,4.56000
 0.00000080000,4.56000
 0.00000080100,4.48000
 0.00000080200,4.40000
 0.00000080300,4.40000
 0.00000080400,4.40000
 0.00000080500,4.48000
 0.00000080600,4.40000
 0.00000080700,4.40000
 0.00000080800,4.48000
 0.00000080900,4.48000
 0.00000081000,4.56000
 0.00000081100,4.48000
 0.00000081200,4.48000
 0.00000081300,4.48000
 0.00000081400,4.48000
 0.00000081500,4.56000
 0.00000081600,4.48000
 0.00000081700,4.48000
 0.00000081800,4.40000
 0.00000081900,4.40000
 0.00000082000,4.48000
 0.00000082100,4.40000
 0.00000082200,4.40000
 0.00000082300,4.40000
 0.00000082400,4.48000
 0.00000082500,4.56000
 0.00000082600,4.56000
 0.00000082700,4.56000
 0.00000082800,4.56000
 0.00000082900,4.56000
 0.00000083000,4.56000
 0.00000083100,4.48000
 0.00000083200,4.40000
 0.00000083300,4.40000
 0.00000083400,4.40000
 0.00000083500,4.48000
 0.00000083600,4.48000
 0.00000083700,4.48000
 0.00000083800,4.48000
 0.00000083900,4.56000
 0.00000084000,4.64000
 0.00000084100,4.56000
 0.00000084200,4.56000
 0.00000084300,4.48000
 0.00000084400,4.48000
 0.00000084500,4.48000
 0.00000084600,4.40000
 0.00000084700,4.40000
 0.00000084800,4.40000
 0.00000084900,4.40000
 0.00000085000,4.48000
