Csv/taller 3/SDS00001.csv

Record Length,Analog:700
Sample Interval,CH1:0.0000000010000
Vertical Units,CH1:V,,,
Vertical Scale,CH1:2.00,,,
Vertical Offset,CH1:-3.00000,,,
Horizontal Units,us,,,
Horizontal Scale,0.0500000000,,,
Model Number,SDS1202X-E,,,
Serial Number,SDS1EEFX6R4802,,,
Software Version,1.3.26,,,
Source,CH1
Second,Volt
 0.00000000000,-0.76000
 0.00000000100,-0.84000
 0.00000000200,-0.84000
 0.00000000300,-0.84000
 0.00000000400,-0.84000
 0.00000000500,-0.92000
 0.00000000600,-0.84000
 0.00000000700,-0.84000
 0.00000000800,-0.76000
 0.00000000900,-0.76000
 0.00000001000,-0.76000
 0.00000001100,-0.84000
 0.00000001200,-0.84000
 0.00000001300,-0.84000
 0.00000001400,-0.84000
 0.00000001500,-0.84000
 0.00000001600,-0.84000
 0.00000001700,-0.84000
 0.00000001800,-0.84000
 0.00000001900,-0.84000
 0.00000002000,-0.84000
 0.00000002100,-0.76000
 0.00000002200,-0.76000
 0.00000002300,-0.84000
 0.00000002400,-0.84000
 0.00000002500,-0.76000
 0.00000002600,-0.92000
 0.00000002700,-0.84000
 0.00000002800,-0.84000
 0.00000002900,-0.92000
 0.00000003000,-0.84000
 0.00000003100,-0.84000
 0.00000003200,-0.84000
 0.00000003300,-0.84000
 0.00000003400,-0.84000
 0.00000003500,-0.92000
 0.00000003600,-0.84000
 0.00000003700,-0.84000
 0.00000003800,-0.92000
 0.00000003900,-0.92000
 0.00000004000,-0.92000
 0.00000004100,-0.84000
 0.00000004200,-0.76000
 0.00000004300,-0.84000
 0.00000004400,-0.92000
 0.00000004500,-0.92000
 0.00000004600,-0.76000
 0.00000004700,-0.84000
 0.00000004800,-0.76000
 0.00000004900,-0.92000
 0.00000005000,-0.84000
 0.00000005100,-0.84000
 0.00000005200,-0.84000
 0.00000005300,-0.84000
 0.00000005400,-0.84000
 0.00000005500,-0.84000
 0.00000005600,-0.92000
 0.00000005700,-0.76000
 0.00000005800,-0.84000
 0.00000005900,-0.84000
 0.00000006000,-0.76000
 0.00000006100,-0.76000
 0.00000006200,-0.84000
 0.00000006300,-0.84000
 0.00000006400,-0.84000
 0.00000006500,-0.76000
 0.00000006600,-0.76000
 0.00000006700,-0.92000
 0.00000006800,-0.84000
 0.00000006900,-0.84000
 0.00000007000,-0.84000
 0.00000007100,-0.84000
 0.00000007200,-0.84000
 0.00000007300,-0.84000
 0.00000007400,-0.84000
 0.00000007500,-0.76000
 0.00000007600,-0.92000
 0.00000007700,-0.84000
 0.00000007800,-0.92000
 0.00000007900,-0.84000
 0.00000008000,-0.84000
 0.00000008100,-0.84000
 0.00000008200,-0.84000
 0.00000008300,-0.76000
 0.00000008400,-0.76000
 0.00000008500,-0.84000
 0.00000008600,-0.84000
 0.00000008700,-0.92000
 0.00000008800,-0.76000
 0.00000008900,-0.76000
 0.00000009000,-0.76000
 0.00000009100,-0.76000
 0.00000009200,-0.76000
 0.00000009300,-0.76000
 0.00000009400,-0.76000
 0.00000009500,-0.76000
 0.00000009600,-0.92000
 0.00000009700,-0.76000
 0.00000009800,-0.76000
 0.00000009900,-0.76000
 0.00000010000,-0.84000
 0.00000010100,-0.84000
 0.00000010200,-0.84000
 0.00000010300,-0.84000
 0.00000010400,-0.76000
 0.00000010500,-0.76000
 0.00000010600,-0.84000
 0.00000010700,-0.76000
 0.00000010800,-0.76000
 0.00000010900,-0.84000
 0.00000011000,-0.84000
 0.00000011100,-0.84000
 0.00000011200,-0.84000
 0.00000011300,-0.84000
 0.00000011400,-0.84000
 0.00000011500,-0.84000
 0.00000011600,-0.76000
 0.00000011700,-0.76000
 0.00000011800,-0.92000
 0.00000011900,-0.84000
 0.00000012000,-0.76000
 0.00000012100,-0.76000
 0.00000012200,-0.76000
 0.00000012300,-0.84000
 0.00000012400,-0.92000
 0.00000012500,-0.92000
 0.00000012600,-0.84000
 0.00000012700,-0.92000
 0.00000012800,-0.84000
 0.00000012900,-0.76000
 0.00000013000,-0.76000
 0.00000013100,-0.76000
 0.00000013200,-0.84000
 0.00000013300,-0.84000
 0.00000013400,-0.92000
 0.00000013500,-0.84000
 0.00000013600,-0.92000
 0.00000013700,-0.92000
 0.00000013800,-0.76000
 0.00000013900,-0.76000
 0.00000014000,-0.76000
 0.00000014100,-0.84000
 0.00000014200,-0.76000
 0.00000014300,-0.92000
 0.00000014400,-0.76000
 0.00000014500,-0.84000
 0.00000014600,-0.92000
 0.00000014700,-0.84000
 0.00000014800,-0.84000
 0.00000014900,-0.84000
 0.00000015000,-0.84000
 0.00000015100,-0.84000
 0.00000015200,-0.92000
 0.00000015300,-0.84000
 0.00000015400,-0.76000
 0.00000015500,-0.84000
 0.00000015600,-0.84000
 0.00000015700,-0.84000
 0.00000015800,-0.84000
 0.00000015900,-0.76000
 0.00000016000,-0.76000
 0.00000016100,-0.76000
 0.00000016200,-0.76000
 0.00000016300,-0.84000
 0.00000016400,-0.84000
 0.00000016500,-0.84000
 0.00000016600,-0.84000
 0.00000016700,-0.76000
 0.00000016800,-0.84000
 0.00000016900,-0.84000
 0.00000017000,-0.84000
 0.00000017100,-0.84000
 0.00000017200,-0.84000
 0.00000017300,-0.76000
 0.00000017400,-0.84000
 0.00000017500,-0.84000
 0.00000017600,-0.84000
 0.00000017700,-0.76000
 0.00000017800,-0.84000
 0.00000017900,-0.84000
 0.00000018000,-0.84000
 0.00000018100,-0.92000
 0.00000018200,-0.84000
 0.00000018300,-0.84000
 0.00000018400,-0.84000
 0.00000018500,-0.84000
 0.00000018600,-0.84000
 0.00000018700,-0.84000
 0.00000018800,-0.84000
 0.00000018900,-0.84000
 0.00000019000,-0.84000
 0.00000019100,-0.84000
 0.00000019200,-0.84000
 0.00000019300,-0.84000
 0.00000019400,-0.84000
 0.00000019500,-0.84000
 0.00000019600,-0.76000
 0.00000019700,-0.84000
 0.00000019800,-0.84000
 0.00000019900,-0.76000
 0.00000020000,-0.68000
 0.00000020100,-0.68000
 0.00000020200,-0.68000
 0.00000020300,-0.52000
 0.00000020400,-0.44000
 0.00000020500,-0.44000
 0.00000020600,-0.36000
 0.00000020700,-0.20000
 0.00000020800,-0.12000
 0.00000020900,0.04000
 0.00000021000,0.12000
 0.00000021100,0.28000
 0.00000021200,0.36000
 0.00000021300,0.52000
 0.00000021400,0.68000
 0.00000021500,0.76000
 0.00000021600,1.00000
 0.00000021700,1.16000
 0.00000021800,1.24000
 0.00000021900,1.40000
 0.00000022000,1.48000
 0.00000022100,1.64000
 0.00000022200,1.80000
 0.00000022300,1.88000
 0.00000022400,1.88000
 0.00000022500,2.04000
 0.00000022600,2.20000
 0.00000022700,2.36000
 0.00000022800,2.44000
 0.00000022900,2.52000
 0.00000023000,2.60000
 0.00000023100,2.68000
 0.00000023200,2.84000
 0.00000023300,2.92000
 0.00000023400,3.00000
 0.00000023500,3.16000
 0.00000023600,3.16000
 0.00000023700,3.24000
 0.00000023800,3.24000
 0.00000023900,3.40000
 0.00000024000,3.40000
 0.00000024100,3.56000
 0.00000024200,3.56000
 0.00000024300,3.64000
 0.00000024400,3.80000
 0.00000024500,3.80000
 0.00000024600,3.72000
 0.00000024700,3.80000
 0.00000024800,3.88000
 0.00000024900,4.04000
 0.00000025000,4.12000
 0.00000025100,4.04000
 0.00000025200,4.04000
 0.00000025300,4.20000
 0.00000025400,4.12000
 0.00000025500,4.20000
 0.00000025600,4.20000
 0.00000025700,4.36000
 0.00000025800,4.28000
 0.00000025900,4.28000
 0.00000026000,4.28000
 0.00000026100,4.28000
 0.00000026200,4.36000
 0.00000026300,4.28000
 0.00000026400,4.20000
 0.00000026500,4.28000
 0.00000026600,4.20000
 0.00000026700,4.12000
 0.00000026800,4.12000
 0.00000026900,4.12000
 0.00000027000,3.96000
 0.00000027100,4.04000
 0.00000027200,3.96000
 0.00000027300,3.80000
 0.00000027400,3.72000
 0.00000027500,3.72000
 0.00000027600,3.64000
 0.00000027700,3.64000
 0.00000027800,3.56000
 0.00000027900,3.48000
 0.00000028000,3.40000
 0.00000028100,3.40000
 0.00000028200,3.32000
 0.00000028300,3.16000
 0.00000028400,3.16000
 0.00000028500,3.08000
 0.00000028600,3.00000
 0.00000028700,2.92000
 0.00000028800,2.84000
 0.00000028900,2.76000
 0.00000029000,2.84000
 0.00000029100,2.76000
 0.00000029200,2.60000
 0.00000029300,2.76000
 0.00000029400,2.68000
 0.00000029500,2.60000
 0.00000029600,2.44000
 0.00000029700,2.44000
 0.00000029800,2.36000
 0.00000029900,2.44000
 0.00000030000,2.36000
 0.00000030100,2.28000
 0.00000030200,2.36000
 0.00000030300,2.28000
 0.00000030400,2.28000
 0.00000030500,2.20000
 0.00000030600,2.20000
 0.00000030700,2.04000
 0.00000030800,2.12000
 0.00000030900,2.04000
 0.00000031000,2.04000
 0.00000031100,2.12000
 0.00000031200,2.12000
 0.00000031300,2.04000
 0.00000031400,1.96000
 0.00000031500,2.04000
 0.00000031600,1.96000
 0.00000031700,1.96000
 0.00000031800,1.96000
 0.00000031900,1.80000
 0.00000032000,1.88000
 0.00000032100,1.80000
 0.00000032200,1.88000
 0.00000032300,1.72000
 0.00000032400,1.72000
 0.00000032500,1.72000
 0.00000032600,1.72000
 0.00000032700,1.64000
 0.00000032800,1.56000
 0.00000032900,1.64000
 0.00000033000,1.56000
 0.00000033100,1.56000
 0.00000033200,1.48000
 0.00000033300,1.40000
 0.00000033400,1.40000
 0.00000033500,1.40000
 0.00000033600,1.40000
 0.00000033700,1.32000
 0.00000033800,1.32000
 0.00000033900,1.16000
 0.00000034000,1.24000
 0.00000034100,1.24000
 0.00000034200,1.24000
 0.00000034300,1.16000
 0.00000034400,1.08000
 0.00000034500,1.08000
 0.00000034600,1.00000
 0.00000034700,1.08000
 0.00000034800,0.92000
 0.00000034900,0.92000
 0.00000035000,1.00000
 0.00000035100,1.00000
 0.00000035200,1.00000
 0.00000035300,0.84000
 0.00000035400,0.92000
 0.00000035500,0.84000
 0.00000035600,0.92000
 0.00000035700,0.84000
 0.00000035800,0.76000
 0.00000035900,0.84000
 0.00000036000,0.76000
 0.00000036100,0.84000
 0.00000036200,0.84000
 0.00000036300,0.76000
 0.00000036400,0.68000
 0.00000036500,0.76000
 0.00000036600,0.68000
 0.00000036700,0.60000
 0.00000036800,0.68000
 0.00000036900,0.68000
 0.00000037000,0.60000
 0.00000037100,0.68000
 0.00000037200,0.60000
 0.00000037300,0.60000
 0.00000037400,0.60000
 0.00000037500,0.60000
 0.00000037600,0.52000
 0.00000037700,0.60000
 0.00000037800,0.60000
 0.00000037900,0.52000
 0.00000038000,0.52000
 0.00000038100,0.52000
 0.00000038200,0.44000
 0.00000038300,0.52000
 0.00000038400,0.52000
 0.00000038500,0.52000
 0.00000038600,0.44000
 0.00000038700,0.44000
 0.00000038800,0.36000
 0.00000038900,0.36000
 0.00000039000,0.44000
 0.00000039100,0.44000
 0.00000039200,0.44000
 0.00000039300,0.28000
 0.00000039400,0.28000
 0.00000039500,0.44000
 0.00000039600,0.36000
 0.00000039700,0.36000
 0.00000039800,0.20000
 0.00000039900,0.28000
 0.00000040000,0.28000
 0.00000040100,0.28000
 0.00000040200,0.12000
 0.00000040300,-0.04000
 0.00000040400,-0.04000
 0.00000040500,-0.12000
 0.00000040600,-0.28000
 0.00000040700,-0.52000
 0.00000040800,-0.52000
 0.00000040900,-0.60000
 0.00000041000,-0.76000
 0.00000041100,-0.92000
 0.00000041200,-1.08000
 0.00000041300,-1.24000
 0.00000041400,-1.32000
 0.00000041500,-1.56000
 0.00000041600,-1.64000
 0.00000041700,-1.72000
 0.00000041800,-1.96000
 0.00000041900,-2.12000
 0.00000042000,-2.28000
 0.00000042100,-2.36000
 0.00000042200,-2.52000
 0.00000042300,-2.60000
 0.00000042400,-2.68000
 0.00000042500,-2.92000
 0.00000042600,-3.00000
 0.00000042700,-3.08000
 0.00000042800,-3.24000
 0.00000042900,-3.32000
 0.00000043000,-3.40000
 0.00000043100,-3.48000
 0.00000043200,-3.56000
 0.00000043300,-3.64000
 0.00000043400,-3.80000
 0.00000043500,-3.80000
 0.00000043600,-3.96000
 0.00000043700,-4.04000
 0.00000043800,-4.04000
 0.00000043900,-4.12000
 0.00000044000,-4.12000
 0.00000044100,-4.28000
 0.00000044200,-4.28000
 0.00000044300,-4.44000
 0.00000044400,-4.44000
 0.00000044500,-4.60000
 0.00000044600,-4.68000
 0.00000044700,-4.68000
 0.00000044800,-4.76000
 0.00000044900,-4.76000
 0.00000045000,-4.84000
 0.00000045100,-4.84000
 0.00000045200,-4.92000
 0.00000045300,-5.00000
 0.00000045400,-5.00000
 0.00000045500,-5.00000
 0.00000045600,-5.16000
 0.00000045700,-5.08000
 0.00000045800,-5.16000
 0.00000045900,-5.16000
 0.00000046000,-5.08000
 0.00000046100,-5.16000
 0.00000046200,-5.16000
 0.00000046300,-5.08000
 0.00000046400,-5.08000
 0.00000046500,-5.08000
 0.00000046600,-5.00000
 0.00000046700,-5.08000
 0.00000046800,-5.00000
 0.00000046900,-4.92000
 0.00000047000,-4.92000
 0.00000047100,-4.84000
 0.00000047200,-4.84000
 0.00000047300,-4.76000
 0.00000047400,-4.60000
 0.00000047500,-4.68000
 0.00000047600,-4.60000
 0.00000047700,-4.52000
 0.00000047800,-4.44000
 0.00000047900,-4.36000
 0.00000048000,-4.28000
 0.00000048100,-4.20000
 0.00000048200,-4.12000
 0.00000048300,-4.04000
 0.00000048400,-4.12000
 0.00000048500,-3.96000
 0.00000048600,-3.88000
 0.00000048700,-3.88000
 0.00000048800,-3.88000
 0.00000048900,-3.80000
 0.00000049000,-3.72000
 0.00000049100,-3.72000
 0.00000049200,-3.64000
 0.00000049300,-3.56000
 0.00000049400,-3.56000
 0.00000049500,-3.48000
 0.00000049600,-3.40000
 0.00000049700,-3.40000
 0.00000049800,-3.24000
 0.00000049900,-3.32000
 0.00000050000,-3.32000
 0.00000050100,-3.24000
 0.00000050200,-3.24000
 0.00000050300,-3.16000
 0.00000050400,-3.16000
 0.00000050500,-3.08000
 0.00000050600,-3.08000
 0.00000050700,-3.00000
 0.00000050800,-3.08000
 0.00000050900,-3.08000
 0.00000051000,-3.00000
 0.00000051100,-2.92000
 0.00000051200,-3.00000
 0.00000051300,-2.92000
 0.00000051400,-2.92000
 0.00000051500,-2.92000
 0.00000051600,-2.84000
 0.00000051700,-2.92000
 0.00000051800,-2.92000
 0.00000051900,-2.84000
 0.00000052000,-2.84000
 0.00000052100,-2.76000
 0.00000052200,-2.68000
 0.00000052300,-2.76000
 0.00000052400,-2.76000
 0.00000052500,-2.60000
 0.00000052600,-2.68000
 0.00000052700,-2.60000
 0.00000052800,-2.60000
 0.00000052900,-2.60000
 0.00000053000,-2.60000
 0.00000053100,-2.52000
 0.00000053200,-2.52000
 0.00000053300,-2.44000
 0.00000053400,-2.44000
 0.00000053500,-2.52000
 0.00000053600,-2.36000
 0.00000053700,-2.28000
 0.00000053800,-2.28000
 0.00000053900,-2.28000
 0.00000054000,-2.28000
 0.00000054100,-2.28000
 0.00000054200,-2.20000
 0.00000054300,-2.20000
 0.00000054400,-2.12000
 0.00000054500,-2.12000
 0.00000054600,-2.12000
 0.00000054700,-2.04000
 0.00000054800,-2.04000
 0.00000054900,-2.04000
 0.00000055000,-2.04000
 0.00000055100,-1.96000
 0.00000055200,-1.96000
 0.00000055300,-1.88000
 0.00000055400,-1.96000
 0.00000055500,-1.88000
 0.00000055600,-1.88000
 0.00000055700,-1.88000
 0.00000055800,-1.88000
 0.00000055900,-1.88000
 0.00000056000,-1.88000
 0.00000056100,-1.80000
 0.00000056200,-1.80000
 0.00000056300,-1.80000
 0.00000056400,-1.80000
 0.00000056500,-1.72000
 0.00000056600,-1.72000
 0.00000056700,-1.72000
 0.00000056800,-1.72000
 0.00000056900,-1.72000
 0.00000057000,-1.64000
 0.00000057100,-1.64000
 0.00000057200,-1.64000
 0.00000057300,-1.64000
 0.00000057400,-1.64000
 0.00000057500,-1.64000
 0.00000057600,-1.56000
 0.00000057700,-1.56000
 0.00000057800,-1.56000
 0.00000057900,-1.56000
 0.00000058000,-1.56000
 0.00000058100,-1.48000
 0.00000058200,-1.56000
 0.00000058300,-1.48000
 0.00000058400,-1.48000
 0.00000058500,-1.56000
 0.00000058600,-1.48000
 0.00000058700,-1.48000
 0.00000058800,-1.48000
 0.00000058900,-1.48000
 0.00000059000,-1.48000
 0.00000059100,-1.48000
 0.00000059200,-1.40000
 0.00000059300,-1.40000
 0.00000059400,-1.40000
 0.00000059500,-1.40000
 0.00000059600,-1.32000
 0.00000059700,-1.40000
 0.00000059800,-1.48000
 0.00000059900,-1.48000
 0.00000060000,-1.40000
 0.00000060100,-1.32000
 0.00000060200,-1.40000
 0.00000060300,-1.32000
 0.00000060400,-1.32000
 0.00000060500,-1.40000
 0.00000060600,-1.32000
 0.00000060700,-1.40000
 0.00000060800,-1.40000
 0.00000060900,-1.24000
 0.00000061000,-1.24000
 0.00000061100,-1.32000
 0.00000061200,-1.32000
 0.00000061300,-1.24000
 0.00000061400,-1.24000
 0.00000061500,-1.32000
 0.00000061600,-1.32000
 0.00000061700,-1.24000
 0.00000061800,-1.24000
 0.00000061900,-1.16000
 0.00000062000,-1.16000
 0.00000062100,-1.16000
 0.00000062200,-1.16000
 0.00000062300,-1.16000
 0.00000062400,-1.16000
 0.00000062500,-1.16000
 0.00000062600,-1.16000
 0.00000062700,-1.16000
 0.00000062800,-1.16000
 0.00000062900,-1.16000
 0.00000063000,-1.16000
 0.00000063100,-1.08000
 0.00000063200,-1.08000
 0.00000063300,-1.08000
 0.00000063400,-1.16000
 0.00000063500,-1.08000
 0.00000063600,-1.16000
 0.00000063700,-1.16000
 0.00000063800,-1.08000
 0.00000063900,-1.16000
 0.00000064000,-1.16000
 0.00000064100,-1.16000
 0.00000064200,-1.16000
 0.00000064300,-1.16000
 0.00000064400,-1.08000
 0.00000064500,-1.08000
 0.00000064600,-1.16000
 0.00000064700,-1.08000
 0.00000064800,-1.08000
 0.00000064900,-1.08000
 0.00000065000,-1.08000
 0.00000065100,-1.08000
 0.00000065200,-1.16000
 0.00000065300,-1.08000
 0.00000065400,-1.08000
 0.00000065500,-1.08000
 0.00000065600,-1.00000
 0.00000065700,-1.08000
 0.00000065800,-1.08000
 0.00000065900,-1.08000
 0.00000066000,-1.08000
 0.00000066100,-1.08000
 0.00000066200,-1.08000
 0.00000066300,-1.08000
 0.00000066400,-1.08000
 0.00000066500,-1.08000
 0.00000066600,-1.00000
 0.00000066700,-1.08000
 0.00000066800,-1.08000
 0.00000066900,-1.08000
 0.00000067000,-1.08000
 0.00000067100,-1.08000
 0.00000067200,-1.08000
 0.00000067300,-1.08000
 0.00000067400,-1.08000
 0.00000067500,-1.08000
 0.00000067600,-1.08000
 0.00000067700,-1.08000
 0.00000067800,-1.08000
 0.00000067900,-1.08000
 0.00000068000,-1.08000
 0.00000068100,-1.08000
 0.00000068200,-1.08000
 0.00000068300,-1.08000
 0.00000068400,-1.00000
 0.00000068500,-1.00000
 0.00000068600,-1.08000
 0.00000068700,-1.00000
 0.00000068800,-1.00000
 0.00000068900,-1.00000
 0.00000069000,-1.00000
 0.00000069100,-1.16000
 0.00000069200,-1.08000
 0.00000069300,-1.08000
 0.00000069400,-1.00000
 0.00000069500,-1.08000
 0.00000069600,-1.08000
 0.00000069700,-1.00000
 0.00000069800,-1.08000
 0.00000069900,-1.00000
